20 frames, 1 instance
t2.micro_seq:
1429167483, 1429167510, 25, start_instances
1429167894, 1429167897, 3, create_and_upload_ini
1429167897, 1429168114, 217, gm
1429168114, 1429168119, 5, download_gif
1429167894, 1429168119, 225, remote_time
1429168214, 1429168218, 4, end_aws

t2.medium_seq:
1429168286, 1429168317, 29, start_instances
1429168521, 1429168524, 3, create_and_upload_ini
1429168524, 1429168739, 215, gm
1429168739, 1429168742, 3, download_gif
1429168521, 1429168742, 221, remote_time
1429168854, 1429168859, 5, end_aws

m3.large_seq:
1429168930, 1429168953, 21, start_instances
1429169387, 1429169390, 3, create_and_upload_ini
1429169390, 1429169604, 214, gm
1429169604, 1429169607, 3, download_gif
1429169387, 1429169607, 220, remote_time
1429169654, 1429169659, 5, end_aws
